Data Frames in R
…
print(region_summary)

Simple feature collection with 21 features and 3 fields
Geometry type: GEOMETRY
Dimension:     XY
Bounding box:  xmin: 80.06014 ymin: 28.55172 xmax: 80.5611 ymax: 29.13732
Geodetic CRS:  WGS 84
# A tibble: 21 × 4
   NAME         total_population average_density                            geom
   <chr>                   <dbl>           <dbl>                   <POLYGON [°]>
 1 BaisiBichawa            37900            513. ((80.50716 28.64567, 80.50793 …
 2 Beldandi                46565           1886. ((80.25449 28.75609, 80.26359 …
 3 Chandani                72813           2260. ((80.10191 28.98643, 80.09772 …
 4 Daijee                  49223            483. ((80.34163 29.05453, 80.3374 2…
 5 Dekhatbhuli             52221            578. ((80.45223 28.7917, 80.45571 2…
 6 Dodhara                 64436           2615. ((80.08799 28.88962, 80.08339 …
 7 Jhalari                 40823            335. ((80.45695 29.03515, 80.44527 …
 8 Kalika                  97216           3820. ((80.43546 28.66121, 80.45385 …
 9 Krishnapur              36368            220. ((80.40638 28.85793, 80.41743 …
10 Laxmipur               277108           9596. ((80.42104 28.65388, 80.41682 …
# ℹ 11 more rows
…
